Κατάσταση	Όνομα	IP	Radmin	Http	Https	Ftp	Rdp	Kοινόχρηστων φακέλων	Ομάδα NetBIOS	Κατασκευαστής	Διεύθυνση MAC	Χρήστης	Σχόλια
OK	Vigor.router	10.0.80.1								DrayTek Corp.	00:1D:AA:B5:18:F0		
OK	10.0.80.2	10.0.80.2								Hewlett Packard	38:EA:A7:A1:0F:01		
OK	10.0.80.3	10.0.80.3								Posiflex Inc.	00:19:17:00:CB:3F		
Άγνωστη κατάσταση	10.0.80.4	10.0.80.4									00:00:00:00:00:00		
Άγνωστη κατάσταση	10.0.80.5	10.0.80.5									00:00:00:00:00:00		
OK	10.0.80.6	10.0.80.6								Dell Inc	00:21:70:4A:29:D8		
Άγνωστη κατάσταση	10.0.80.7	10.0.80.7									00:00:00:00:00:00		
Άγνωστη κατάσταση	10.0.80.8	10.0.80.8									00:00:00:00:00:00		
Άγνωστη κατάσταση	10.0.80.9	10.0.80.9									00:00:00:00:00:00		
OK	10.0.80.10	10.0.80.10								MAT S.A. (Mircrelec Advanced Technology)	00:0E:6E:02:32:A5		
Άγνωστη κατάσταση	10.0.80.11	10.0.80.11									00:00:00:00:00:00		
Άγνωστη κατάσταση	10.0.80.12	10.0.80.12									00:00:00:00:00:00		
Άγνωστη κατάσταση	10.0.80.13	10.0.80.13									00:00:00:00:00:00		
Άγνωστη κατάσταση	10.0.80.14	10.0.80.14									00:00:00:00:00:00		
Άγνωστη κατάσταση	10.0.80.15	10.0.80.15									00:00:00:00:00:00		
Ανενεργός	10.0.80.16	10.0.80.16								Tecmobile (International) Ltd.	9C:04:73:80:B3:43		
OK	10.0.80.17	10.0.80.17								Tecmobile (International) Ltd.	9C:04:73:81:00:D1		
Άγνωστη κατάσταση	10.0.80.18	10.0.80.18									00:00:00:00:00:00		
Άγνωστη κατάσταση	10.0.80.19	10.0.80.19									00:00:00:00:00:00		
Άγνωστη κατάσταση	10.0.80.20	10.0.80.20									00:00:00:00:00:00		
OK	10.0.80.21	10.0.80.21								Tecmobile (International) Ltd.	9C:04:73:80:B3:35		
Άγνωστη κατάσταση	10.0.80.22	10.0.80.22									00:00:00:00:00:00		
Άγνωστη κατάσταση	10.0.80.23	10.0.80.23									00:00:00:00:00:00		
Άγνωστη κατάσταση	10.0.80.24	10.0.80.24									00:00:00:00:00:00		
Άγνωστη κατάσταση	10.0.80.25	10.0.80.25									00:00:00:00:00:00		
Άγνωστη κατάσταση	10.0.80.26	10.0.80.26									00:00:00:00:00:00		
Άγνωστη κατάσταση	10.0.80.27	10.0.80.27									00:00:00:00:00:00		
Άγνωστη κατάσταση	10.0.80.28	10.0.80.28									00:00:00:00:00:00		
Άγνωστη κατάσταση	10.0.80.29	10.0.80.29									00:00:00:00:00:00		
Άγνωστη κατάσταση	10.0.80.30	10.0.80.30									00:00:00:00:00:00		
Άγνωστη κατάσταση	10.0.80.31	10.0.80.31									00:00:00:00:00:00		
Άγνωστη κατάσταση	10.0.80.32	10.0.80.32									00:00:00:00:00:00		
Άγνωστη κατάσταση	10.0.80.33	10.0.80.33									00:00:00:00:00:00		
Άγνωστη κατάσταση	10.0.80.34	10.0.80.34									00:00:00:00:00:00		
Άγνωστη κατάσταση	10.0.80.35	10.0.80.35									00:00:00:00:00:00		
Άγνωστη κατάσταση	10.0.80.36	10.0.80.36									00:00:00:00:00:00		
Άγνωστη κατάσταση	10.0.80.37	10.0.80.37									00:00:00:00:00:00		
Άγνωστη κατάσταση	10.0.80.38	10.0.80.38									00:00:00:00:00:00		
Άγνωστη κατάσταση	10.0.80.39	10.0.80.39									00:00:00:00:00:00		
Άγνωστη κατάσταση	10.0.80.40	10.0.80.40									00:00:00:00:00:00		
Άγνωστη κατάσταση	10.0.80.41	10.0.80.41									00:00:00:00:00:00		
Άγνωστη κατάσταση	10.0.80.42	10.0.80.42									00:00:00:00:00:00		
Άγνωστη κατάσταση	10.0.80.43	10.0.80.43									00:00:00:00:00:00		
Άγνωστη κατάσταση	10.0.80.44	10.0.80.44									00:00:00:00:00:00		
Άγνωστη κατάσταση	10.0.80.45	10.0.80.45									00:00:00:00:00:00		
Άγνωστη κατάσταση	10.0.80.46	10.0.80.46									00:00:00:00:00:00		
Άγνωστη κατάσταση	10.0.80.47	10.0.80.47									00:00:00:00:00:00		
Άγνωστη κατάσταση	10.0.80.48	10.0.80.48									00:00:00:00:00:00		
Άγνωστη κατάσταση	10.0.80.49	10.0.80.49									00:00:00:00:00:00		
Άγνωστη κατάσταση	10.0.80.50	10.0.80.50									00:00:00:00:00:00		
Άγνωστη κατάσταση	10.0.80.51	10.0.80.51									00:00:00:00:00:00		
Άγνωστη κατάσταση	10.0.80.52	10.0.80.52									00:00:00:00:00:00		
Άγνωστη κατάσταση	10.0.80.53	10.0.80.53									00:00:00:00:00:00		
Άγνωστη κατάσταση	10.0.80.54	10.0.80.54									00:00:00:00:00:00		
Άγνωστη κατάσταση	10.0.80.55	10.0.80.55									00:00:00:00:00:00		
Άγνωστη κατάσταση	10.0.80.56	10.0.80.56									00:00:00:00:00:00		
Άγνωστη κατάσταση	10.0.80.57	10.0.80.57									00:00:00:00:00:00		
Άγνωστη κατάσταση	10.0.80.58	10.0.80.58									00:00:00:00:00:00		
Άγνωστη κατάσταση	10.0.80.59	10.0.80.59									00:00:00:00:00:00		
Άγνωστη κατάσταση	10.0.80.60	10.0.80.60									00:00:00:00:00:00		
Άγνωστη κατάσταση	10.0.80.61	10.0.80.61									00:00:00:00:00:00		
Άγνωστη κατάσταση	10.0.80.62	10.0.80.62									00:00:00:00:00:00		
Άγνωστη κατάσταση	10.0.80.63	10.0.80.63									00:00:00:00:00:00		
Άγνωστη κατάσταση	10.0.80.64	10.0.80.64									00:00:00:00:00:00		
Άγνωστη κατάσταση	10.0.80.65	10.0.80.65									00:00:00:00:00:00		
Άγνωστη κατάσταση	10.0.80.66	10.0.80.66									00:00:00:00:00:00		
Άγνωστη κατάσταση	10.0.80.67	10.0.80.67									00:00:00:00:00:00		
Άγνωστη κατάσταση	10.0.80.68	10.0.80.68									00:00:00:00:00:00		
Άγνωστη κατάσταση	10.0.80.69	10.0.80.69									00:00:00:00:00:00		
Άγνωστη κατάσταση	10.0.80.70	10.0.80.70									00:00:00:00:00:00		
Άγνωστη κατάσταση	10.0.80.71	10.0.80.71									00:00:00:00:00:00		
Άγνωστη κατάσταση	10.0.80.72	10.0.80.72									00:00:00:00:00:00		
Άγνωστη κατάσταση	10.0.80.73	10.0.80.73									00:00:00:00:00:00		
Άγνωστη κατάσταση	10.0.80.74	10.0.80.74									00:00:00:00:00:00		
Άγνωστη κατάσταση	10.0.80.75	10.0.80.75									00:00:00:00:00:00		
Άγνωστη κατάσταση	10.0.80.76	10.0.80.76									00:00:00:00:00:00		
Άγνωστη κατάσταση	10.0.80.77	10.0.80.77									00:00:00:00:00:00		
Άγνωστη κατάσταση	10.0.80.78	10.0.80.78									00:00:00:00:00:00		
Άγνωστη κατάσταση	10.0.80.79	10.0.80.79									00:00:00:00:00:00		
Άγνωστη κατάσταση	10.0.80.80	10.0.80.80									00:00:00:00:00:00		
Άγνωστη κατάσταση	10.0.80.81	10.0.80.81									00:00:00:00:00:00		
Άγνωστη κατάσταση	10.0.80.82	10.0.80.82									00:00:00:00:00:00		
Άγνωστη κατάσταση	10.0.80.83	10.0.80.83									00:00:00:00:00:00		
Άγνωστη κατάσταση	10.0.80.84	10.0.80.84									00:00:00:00:00:00		
Άγνωστη κατάσταση	10.0.80.85	10.0.80.85									00:00:00:00:00:00		
Άγνωστη κατάσταση	10.0.80.86	10.0.80.86									00:00:00:00:00:00		
Άγνωστη κατάσταση	10.0.80.87	10.0.80.87									00:00:00:00:00:00		
Άγνωστη κατάσταση	10.0.80.88	10.0.80.88									00:00:00:00:00:00		
Άγνωστη κατάσταση	10.0.80.89	10.0.80.89									00:00:00:00:00:00		
Άγνωστη κατάσταση	10.0.80.90	10.0.80.90									00:00:00:00:00:00		
Άγνωστη κατάσταση	10.0.80.91	10.0.80.91									00:00:00:00:00:00		
Άγνωστη κατάσταση	10.0.80.92	10.0.80.92									00:00:00:00:00:00		
Άγνωστη κατάσταση	10.0.80.93	10.0.80.93									00:00:00:00:00:00		
Άγνωστη κατάσταση	10.0.80.94	10.0.80.94									00:00:00:00:00:00		
Άγνωστη κατάσταση	10.0.80.95	10.0.80.95									00:00:00:00:00:00		
Άγνωστη κατάσταση	10.0.80.96	10.0.80.96									00:00:00:00:00:00		
Άγνωστη κατάσταση	10.0.80.97	10.0.80.97									00:00:00:00:00:00		
Άγνωστη κατάσταση	10.0.80.98	10.0.80.98									00:00:00:00:00:00		
Άγνωστη κατάσταση	10.0.80.99	10.0.80.99									00:00:00:00:00:00		
Άγνωστη κατάσταση	10.0.80.100	10.0.80.100									00:00:00:00:00:00		
OK	10.0.80.101	10.0.80.101								SEIKO EPSON CORPORATION	B0:E8:92:FA:AC:DF		
OK	10.0.80.102	10.0.80.102								SEIKO EPSON CORPORATION	B0:E8:92:FB:15:D1		
OK	10.0.80.103	10.0.80.103								SEWOO TECH CO., LTD	44:A8:C2:01:B3:7C		
Άγνωστη κατάσταση	10.0.80.104	10.0.80.104									00:00:00:00:00:00		
Άγνωστη κατάσταση	10.0.80.105	10.0.80.105									00:00:00:00:00:00		
Άγνωστη κατάσταση	10.0.80.106	10.0.80.106									00:00:00:00:00:00		
Άγνωστη κατάσταση	10.0.80.107	10.0.80.107									00:00:00:00:00:00		
Άγνωστη κατάσταση	10.0.80.108	10.0.80.108									00:00:00:00:00:00		
Άγνωστη κατάσταση	10.0.80.109	10.0.80.109									00:00:00:00:00:00		
Άγνωστη κατάσταση	10.0.80.110	10.0.80.110									00:00:00:00:00:00		
Άγνωστη κατάσταση	10.0.80.111	10.0.80.111									00:00:00:00:00:00		
Άγνωστη κατάσταση	10.0.80.112	10.0.80.112									00:00:00:00:00:00		
Άγνωστη κατάσταση	10.0.80.113	10.0.80.113									00:00:00:00:00:00		
Άγνωστη κατάσταση	10.0.80.114	10.0.80.114									00:00:00:00:00:00		
Άγνωστη κατάσταση	10.0.80.115	10.0.80.115									00:00:00:00:00:00		
Άγνωστη κατάσταση	10.0.80.116	10.0.80.116									00:00:00:00:00:00		
Άγνωστη κατάσταση	10.0.80.117	10.0.80.117									00:00:00:00:00:00		
Άγνωστη κατάσταση	10.0.80.118	10.0.80.118									00:00:00:00:00:00		
Άγνωστη κατάσταση	10.0.80.119	10.0.80.119									00:00:00:00:00:00		
OK	10.0.80.120	10.0.80.120								Ubiquiti Networks, INC	24:A4:3C:64:62:F6		
Άγνωστη κατάσταση	10.0.80.121	10.0.80.121									00:00:00:00:00:00		
Άγνωστη κατάσταση	10.0.80.122	10.0.80.122									00:00:00:00:00:00		
Άγνωστη κατάσταση	10.0.80.123	10.0.80.123									00:00:00:00:00:00		
Άγνωστη κατάσταση	10.0.80.124	10.0.80.124									00:00:00:00:00:00		
Άγνωστη κατάσταση	10.0.80.125	10.0.80.125									00:00:00:00:00:00		
Άγνωστη κατάσταση	10.0.80.126	10.0.80.126									00:00:00:00:00:00		
Άγνωστη κατάσταση	10.0.80.127	10.0.80.127									00:00:00:00:00:00		
Άγνωστη κατάσταση	10.0.80.128	10.0.80.128									00:00:00:00:00:00		
Άγνωστη κατάσταση	10.0.80.129	10.0.80.129									00:00:00:00:00:00		
Άγνωστη κατάσταση	10.0.80.130	10.0.80.130									00:00:00:00:00:00		
Άγνωστη κατάσταση	10.0.80.131	10.0.80.131									00:00:00:00:00:00		
Άγνωστη κατάσταση	10.0.80.132	10.0.80.132									00:00:00:00:00:00		
OK	ΧΡΗΣΤΟΣ-PC	10.0.80.133						Users		Intel Corporate	DC:A9:71:85:64:D9		
Άγνωστη κατάσταση	10.0.80.134	10.0.80.134									00:00:00:00:00:00		
Άγνωστη κατάσταση	10.0.80.135	10.0.80.135									00:00:00:00:00:00		
Άγνωστη κατάσταση	10.0.80.136	10.0.80.136									00:00:00:00:00:00		
Άγνωστη κατάσταση	10.0.80.137	10.0.80.137									00:00:00:00:00:00		
Άγνωστη κατάσταση	10.0.80.138	10.0.80.138									00:00:00:00:00:00		
Άγνωστη κατάσταση	10.0.80.139	10.0.80.139									00:00:00:00:00:00		
Άγνωστη κατάσταση	10.0.80.140	10.0.80.140									00:00:00:00:00:00		
OK	10.0.80.141	10.0.80.141								Dell Inc	00:21:70:34:1F:F3		
Άγνωστη κατάσταση	10.0.80.142	10.0.80.142									00:00:00:00:00:00		
Άγνωστη κατάσταση	10.0.80.143	10.0.80.143									00:00:00:00:00:00		
Άγνωστη κατάσταση	10.0.80.144	10.0.80.144									00:00:00:00:00:00		
Άγνωστη κατάσταση	10.0.80.145	10.0.80.145									00:00:00:00:00:00		
Άγνωστη κατάσταση	10.0.80.146	10.0.80.146									00:00:00:00:00:00		
Άγνωστη κατάσταση	10.0.80.147	10.0.80.147									00:00:00:00:00:00		
Άγνωστη κατάσταση	10.0.80.148	10.0.80.148									00:00:00:00:00:00		
Άγνωστη κατάσταση	10.0.80.149	10.0.80.149									00:00:00:00:00:00		
Άγνωστη κατάσταση	10.0.80.150	10.0.80.150									00:00:00:00:00:00		
Άγνωστη κατάσταση	10.0.80.151	10.0.80.151									00:00:00:00:00:00		
Άγνωστη κατάσταση	10.0.80.152	10.0.80.152									00:00:00:00:00:00		
Άγνωστη κατάσταση	10.0.80.153	10.0.80.153									00:00:00:00:00:00		
Άγνωστη κατάσταση	10.0.80.154	10.0.80.154									00:00:00:00:00:00		
Άγνωστη κατάσταση	10.0.80.155	10.0.80.155									00:00:00:00:00:00		
Άγνωστη κατάσταση	10.0.80.156	10.0.80.156									00:00:00:00:00:00		
Άγνωστη κατάσταση	10.0.80.157	10.0.80.157									00:00:00:00:00:00		
Άγνωστη κατάσταση	10.0.80.158	10.0.80.158									00:00:00:00:00:00		
Άγνωστη κατάσταση	10.0.80.159	10.0.80.159									00:00:00:00:00:00		
Άγνωστη κατάσταση	10.0.80.160	10.0.80.160									00:00:00:00:00:00		
Άγνωστη κατάσταση	10.0.80.161	10.0.80.161									00:00:00:00:00:00		
Άγνωστη κατάσταση	10.0.80.162	10.0.80.162									00:00:00:00:00:00		
Άγνωστη κατάσταση	10.0.80.163	10.0.80.163									00:00:00:00:00:00		
Άγνωστη κατάσταση	10.0.80.164	10.0.80.164									00:00:00:00:00:00		
Άγνωστη κατάσταση	10.0.80.165	10.0.80.165									00:00:00:00:00:00		
Άγνωστη κατάσταση	10.0.80.166	10.0.80.166									00:00:00:00:00:00		
Άγνωστη κατάσταση	10.0.80.167	10.0.80.167									00:00:00:00:00:00		
Άγνωστη κατάσταση	10.0.80.168	10.0.80.168									00:00:00:00:00:00		
Άγνωστη κατάσταση	10.0.80.169	10.0.80.169									00:00:00:00:00:00		
Άγνωστη κατάσταση	10.0.80.170	10.0.80.170									00:00:00:00:00:00		
Άγνωστη κατάσταση	10.0.80.171	10.0.80.171									00:00:00:00:00:00		
Άγνωστη κατάσταση	10.0.80.172	10.0.80.172									00:00:00:00:00:00		
Άγνωστη κατάσταση	10.0.80.173	10.0.80.173									00:00:00:00:00:00		
Άγνωστη κατάσταση	10.0.80.174	10.0.80.174									00:00:00:00:00:00		
Άγνωστη κατάσταση	10.0.80.175	10.0.80.175									00:00:00:00:00:00		
Άγνωστη κατάσταση	10.0.80.176	10.0.80.176									00:00:00:00:00:00		
Άγνωστη κατάσταση	10.0.80.177	10.0.80.177									00:00:00:00:00:00		
Άγνωστη κατάσταση	10.0.80.178	10.0.80.178									00:00:00:00:00:00		
Άγνωστη κατάσταση	10.0.80.179	10.0.80.179									00:00:00:00:00:00		
Άγνωστη κατάσταση	10.0.80.180	10.0.80.180									00:00:00:00:00:00		
Άγνωστη κατάσταση	10.0.80.181	10.0.80.181									00:00:00:00:00:00		
Άγνωστη κατάσταση	10.0.80.182	10.0.80.182									00:00:00:00:00:00		
Άγνωστη κατάσταση	10.0.80.183	10.0.80.183									00:00:00:00:00:00		
Άγνωστη κατάσταση	10.0.80.184	10.0.80.184									00:00:00:00:00:00		
Άγνωστη κατάσταση	10.0.80.185	10.0.80.185									00:00:00:00:00:00		
Άγνωστη κατάσταση	10.0.80.186	10.0.80.186									00:00:00:00:00:00		
Άγνωστη κατάσταση	10.0.80.187	10.0.80.187									00:00:00:00:00:00		
Άγνωστη κατάσταση	10.0.80.188	10.0.80.188									00:00:00:00:00:00		
Άγνωστη κατάσταση	10.0.80.189	10.0.80.189									00:00:00:00:00:00		
Άγνωστη κατάσταση	10.0.80.190	10.0.80.190									00:00:00:00:00:00		
Άγνωστη κατάσταση	10.0.80.191	10.0.80.191									00:00:00:00:00:00		
Άγνωστη κατάσταση	10.0.80.192	10.0.80.192									00:00:00:00:00:00		
Άγνωστη κατάσταση	10.0.80.193	10.0.80.193									00:00:00:00:00:00		
Άγνωστη κατάσταση	10.0.80.194	10.0.80.194									00:00:00:00:00:00		
Άγνωστη κατάσταση	10.0.80.195	10.0.80.195									00:00:00:00:00:00		
Άγνωστη κατάσταση	10.0.80.196	10.0.80.196									00:00:00:00:00:00		
Άγνωστη κατάσταση	10.0.80.197	10.0.80.197									00:00:00:00:00:00		
Άγνωστη κατάσταση	10.0.80.198	10.0.80.198									00:00:00:00:00:00		
Άγνωστη κατάσταση	10.0.80.199	10.0.80.199									00:00:00:00:00:00		
Άγνωστη κατάσταση	10.0.80.200	10.0.80.200									00:00:00:00:00:00		
Άγνωστη κατάσταση	10.0.80.201	10.0.80.201									00:00:00:00:00:00		
Άγνωστη κατάσταση	10.0.80.202	10.0.80.202									00:00:00:00:00:00		
Άγνωστη κατάσταση	10.0.80.203	10.0.80.203									00:00:00:00:00:00		
Άγνωστη κατάσταση	10.0.80.204	10.0.80.204									00:00:00:00:00:00		
Άγνωστη κατάσταση	10.0.80.205	10.0.80.205									00:00:00:00:00:00		
Άγνωστη κατάσταση	10.0.80.206	10.0.80.206									00:00:00:00:00:00		
Άγνωστη κατάσταση	10.0.80.207	10.0.80.207									00:00:00:00:00:00		
Άγνωστη κατάσταση	10.0.80.208	10.0.80.208									00:00:00:00:00:00		
Άγνωστη κατάσταση	10.0.80.209	10.0.80.209									00:00:00:00:00:00		
Άγνωστη κατάσταση	10.0.80.210	10.0.80.210									00:00:00:00:00:00		
Άγνωστη κατάσταση	10.0.80.211	10.0.80.211									00:00:00:00:00:00		
Άγνωστη κατάσταση	10.0.80.212	10.0.80.212									00:00:00:00:00:00		
Άγνωστη κατάσταση	10.0.80.213	10.0.80.213									00:00:00:00:00:00		
Άγνωστη κατάσταση	10.0.80.214	10.0.80.214									00:00:00:00:00:00		
Άγνωστη κατάσταση	10.0.80.215	10.0.80.215									00:00:00:00:00:00		
Άγνωστη κατάσταση	10.0.80.216	10.0.80.216									00:00:00:00:00:00		
Άγνωστη κατάσταση	10.0.80.217	10.0.80.217									00:00:00:00:00:00		
Άγνωστη κατάσταση	10.0.80.218	10.0.80.218									00:00:00:00:00:00		
Άγνωστη κατάσταση	10.0.80.219	10.0.80.219									00:00:00:00:00:00		
Άγνωστη κατάσταση	10.0.80.220	10.0.80.220									00:00:00:00:00:00		
Άγνωστη κατάσταση	10.0.80.221	10.0.80.221									00:00:00:00:00:00		
Άγνωστη κατάσταση	10.0.80.222	10.0.80.222									00:00:00:00:00:00		
Άγνωστη κατάσταση	10.0.80.223	10.0.80.223									00:00:00:00:00:00		
Άγνωστη κατάσταση	10.0.80.224	10.0.80.224									00:00:00:00:00:00		
Άγνωστη κατάσταση	10.0.80.225	10.0.80.225									00:00:00:00:00:00		
Άγνωστη κατάσταση	10.0.80.226	10.0.80.226									00:00:00:00:00:00		
Άγνωστη κατάσταση	10.0.80.227	10.0.80.227									00:00:00:00:00:00		
Άγνωστη κατάσταση	10.0.80.228	10.0.80.228									00:00:00:00:00:00		
Άγνωστη κατάσταση	10.0.80.229	10.0.80.229									00:00:00:00:00:00		
Ανενεργός	10.0.80.230	10.0.80.230								SATEL sp. z o.o.	00:1B:9C:00:8B:60		
Άγνωστη κατάσταση	10.0.80.231	10.0.80.231									00:00:00:00:00:00		
Άγνωστη κατάσταση	10.0.80.232	10.0.80.232									00:00:00:00:00:00		
Άγνωστη κατάσταση	10.0.80.233	10.0.80.233									00:00:00:00:00:00		
Άγνωστη κατάσταση	10.0.80.234	10.0.80.234									00:00:00:00:00:00		
OK	10.0.80.235	10.0.80.235									00:82:32:44:43:01		
Άγνωστη κατάσταση	10.0.80.236	10.0.80.236									00:00:00:00:00:00		
Άγνωστη κατάσταση	10.0.80.237	10.0.80.237									00:00:00:00:00:00		
Άγνωστη κατάσταση	10.0.80.238	10.0.80.238									00:00:00:00:00:00		
Άγνωστη κατάσταση	10.0.80.239	10.0.80.239									00:00:00:00:00:00		
OK	10.0.80.240	10.0.80.240								IDIS Co., Ltd.	00:03:22:16:36:AC		
OK	10.0.80.241	10.0.80.241								Protechna Herbst GmbH & Co. KG	00:12:11:04:45:5F		
Άγνωστη κατάσταση	10.0.80.242	10.0.80.242									00:00:00:00:00:00		
Άγνωστη κατάσταση	10.0.80.243	10.0.80.243									00:00:00:00:00:00		
Άγνωστη κατάσταση	10.0.80.244	10.0.80.244									00:00:00:00:00:00		
OK	10.0.80.245	10.0.80.245								Ubiquiti Networks, Inc.	DC:9F:DB:A4:F0:0A		
Άγνωστη κατάσταση	10.0.80.246	10.0.80.246									00:00:00:00:00:00		
Άγνωστη κατάσταση	10.0.80.247	10.0.80.247									00:00:00:00:00:00		
Άγνωστη κατάσταση	10.0.80.248	10.0.80.248									00:00:00:00:00:00		
Άγνωστη κατάσταση	10.0.80.249	10.0.80.249									00:00:00:00:00:00		
Άγνωστη κατάσταση	10.0.80.250	10.0.80.250									00:00:00:00:00:00		
Άγνωστη κατάσταση	10.0.80.251	10.0.80.251									00:00:00:00:00:00		
Άγνωστη κατάσταση	10.0.80.252	10.0.80.252									00:00:00:00:00:00		
Άγνωστη κατάσταση	10.0.80.253	10.0.80.253									00:00:00:00:00:00		
Άγνωστη κατάσταση	10.0.80.254	10.0.80.254									00:00:00:00:00:00		
