﻿Connected, SSID,Signal(dBm),Network Mode, Default Encryption,Default Auth, Vendor, BSSID, Channel, Frequency, Network Type, Adapter Description
True,Mikel Guest Internet,-49,802.11n,AES-CCMP,WPA2/PSK,Unknown,2E:A4:3C:65:62:F6,11,2462,Access Point,Intel(R) Centrino(R) Wireless-N 130
False,Mikel Office,-50,802.11n,AES-CCMP,WPA2/PSK,Unknown,2A:A4:3C:65:62:F6,11,2462,Access Point,Intel(R) Centrino(R) Wireless-N 130
False,Mikel,-51,802.11b,WEP,Open,Unknown,DC:9F:DB:A4:F0:0A,1,2412,Access Point,Intel(R) Centrino(R) Wireless-N 130
False,<Non-broadcasted>,-65,802.11n,AES-CCMP,WPA2/PSK,Unknown,24:A4:3C:96:CD:E5,13,2472,Access Point,Intel(R) Centrino(R) Wireless-N 130
False,STASY_HOLSPOT,-69,802.11n,None,Open,Unknown,80:C1:6E:02:39:70,1,2412,Access Point,Intel(R) Centrino(R) Wireless-N 130
False,CINNABON,-69,802.11n,None,Open,Handlink,00:90:0E:02:1A:92,6,2437,Access Point,Intel(R) Centrino(R) Wireless-N 130
False,SEMELIWINES,-77,802.11n,AES-CCMP,WPA2/PSK,Unknown,E4:8D:8C:A8:BA:ED,4, 8,2427,Access Point,Intel(R) Centrino(R) Wireless-N 130
False,OTEf0e3d8,-80,802.11n,AES-CCMP,WPA/PSK,Unknown,34:4D:EA:F0:E3:D8,6, 10,2437,Access Point,Intel(R) Centrino(R) Wireless-N 130
False,MYKONOS GRILL 2,-84,802.11n,AES-CCMP,WPA2/PSK,Unknown,14:CC:20:EB:10:FF,6, 2,2437,Access Point,Intel(R) Centrino(R) Wireless-N 130
False,EurolifeWireless,-84,802.11n,AES-CCMP,WPA2/PSK,Unknown,2C:44:FD:A5:B4:12,13,2472,Access Point,Intel(R) Centrino(R) Wireless-N 130
False,FLF_COL,-85,802.11n,AES-CCMP,WPA2/PSK,Unknown,E0:46:9A:7F:52:76,6,2437,Access Point,Intel(R) Centrino(R) Wireless-N 130
False,<Non-broadcasted>,-85,802.11n,AES-CCMP,WPA2/PSK,Unknown,2C:44:FD:A5:B4:13,13,2472,Access Point,Intel(R) Centrino(R) Wireless-N 130
False,SILVIO,-86,802.11g,WEP,Open,Motorola,00:23:68:94:2B:C0,1,2412,Access Point,Intel(R) Centrino(R) Wireless-N 130

