﻿Connected, SSID,Signal(dBm),Network Mode, Default Encryption,Default Auth, Vendor, BSSID, Channel, Frequency, Network Type, Adapter Description
True,Mikel Guest Internet,-40,802.11n,AES-CCMP,WPA2/PSK,Unknown,2E:A4:3C:65:62:F6,11,2462,Access Point,Intel(R) Centrino(R) Wireless-N 130
False,Mikel Office,-43,802.11n,AES-CCMP,WPA2/PSK,Unknown,2A:A4:3C:65:62:F6,11,2462,Access Point,Intel(R) Centrino(R) Wireless-N 130
False,korai,-60,802.11n,AES-CCMP,WPA2/PSK,Mannesmann Ipulsys,14:60:80:88:36:10,12, 8,2467,Access Point,Intel(R) Centrino(R) Wireless-N 130
False,Mikel,-66,802.11b,WEP,Open,Unknown,DC:9F:DB:A4:F0:0A,1,2412,Access Point,Intel(R) Centrino(R) Wireless-N 130
False,CINNABON,-72,802.11n,None,Open,Handlink,00:90:0E:02:1A:92,6,2437,Access Point,Intel(R) Centrino(R) Wireless-N 130
False,SEMELIWINES,-73,802.11n,AES-CCMP,WPA2/PSK,Unknown,E4:8D:8C:A8:BA:ED,4, 8,2427,Access Point,Intel(R) Centrino(R) Wireless-N 130
False,<Non-broadcasted>,-73,802.11n,AES-CCMP,WPA2/PSK,Unknown,24:A4:3C:96:CD:E5,13,2472,Access Point,Intel(R) Centrino(R) Wireless-N 130
False,Guest access,-79,802.11n,AES-CCMP,WPA2/PSK,Unknown,2C:44:FD:A5:B4:13,1,2412,Access Point,Intel(R) Centrino(R) Wireless-N 130
False,OTEf0e3d8,-90,802.11n,AES-CCMP,WPA/PSK,Unknown,34:4D:EA:F0:E3:D8,6, 10,2437,Access Point,Intel(R) Centrino(R) Wireless-N 130

